^C:\USERS\KOSTYABEK\SOURCE\REPOS\CONSOLEAPPLICATION1\CONSOLEAPPLICATION1\CONSOLEAPPLICATION1.CPP
D:\PROGRAM FILES (X86)\MICROSOFT VISUAL STUDIO\2019\COMMUNITY\VC\TOOLS\MSVC\14.23.28105\BIN\HOSTX86\X86\1049\CLUI.DLL
C:\WINDOWS\GLOBALIZATION\SORTING\SORTDEFAULT.NLS
C:\WINDOWS\SYSTEM32\RSAENH.DLL
C:\WINDOWS\SYSTEM32\TZRES.DLL
D:\PROGRAM FILES (X86)\MICROSOFT VISUAL STUDIO\2019\COMMUNITY\VC\TOOLS\MSVC\14.23.28105\INCLUDE\IOSTREAM
D:\PROGRAM FILES (X86)\MICROSOFT VISUAL STUDIO\2019\COMMUNITY\VC\TOOLS\MSVC\14.23.28105\INCLUDE\YVALS_CORE.H
D:\PROGRAM FILES (X86)\MICROSOFT VISUAL STUDIO\2019\COMMUNITY\VC\TOOLS\MSVC\14.23.28105\INCLUDE\CRTDEFS.H
D:\PROGRAM FILES (X86)\MICROSOFT VISUAL STUDIO\2019\COMMUNITY\VC\TOOLS\MSVC\14.23.28105\INCLUDE\VCRUNTIME.H
D:\PROGRAM FILES (X86)\MICROSOFT VISUAL STUDIO\2019\COMMUNITY\VC\TOOLS\MSVC\14.23.28105\INCLUDE\SAL.H
D:\PROGRAM FILES (X86)\MICROSOFT VISUAL STUDIO\2019\COMMUNITY\VC\TOOLS\MSVC\14.23.28105\INCLUDE\CONCURRENCYSAL.H
D:\PROGRAM FILES (X86)\MICROSOFT VISUAL STUDIO\2019\COMMUNITY\VC\TOOLS\MSVC\14.23.28105\INCLUDE\VADEFS.H
D:\WINDOWS KITS\10\INCLUDE\10.0.18362.0\UCRT\CORECRT.H
D:\PROGRAM FILES (X86)\MICROSOFT VISUAL STUDIO\2019\COMMUNITY\VC\TOOLS\MSVC\14.23.28105\INCLUDE\XKEYCHECK.H
D:\PROGRAM FILES (X86)\MICROSOFT VISUAL STUDIO\2019\COMMUNITY\VC\TOOLS\MSVC\14.23.28105\INCLUDE\ISTREAM
D:\PROGRAM FILES (X86)\MICROSOFT VISUAL STUDIO\2019\COMMUNITY\VC\TOOLS\MSVC\14.23.28105\INCLUDE\OSTREAM
D:\PROGRAM FILES (X86)\MICROSOFT VISUAL STUDIO\2019\COMMUNITY\VC\TOOLS\MSVC\14.23.28105\INCLUDE\IOS
D:\PROGRAM FILES (X86)\MICROSOFT VISUAL STUDIO\2019\COMMUNITY\VC\TOOLS\MSVC\14.23.28105\INCLUDE\XLOCNUM
D:\PROGRAM FILES (X86)\MICROSOFT VISUAL STUDIO\2019\COMMUNITY\VC\TOOLS\MSVC\14.23.28105\INCLUDE\CLIMITS
D:\PROGRAM FILES (X86)\MICROSOFT VISUAL STUDIO\2019\COMMUNITY\VC\TOOLS\MSVC\14.23.28105\INCLUDE\LIMITS.H
D:\PROGRAM FILES (X86)\MICROSOFT VISUAL STUDIO\2019\COMMUNITY\VC\TOOLS\MSVC\14.23.28105\INCLUDE\CMATH
D:\PROGRAM FILES (X86)\MICROSOFT VISUAL STUDIO\2019\COMMUNITY\VC\TOOLS\MSVC\14.23.28105\INCLUDE\YVALS.H
D:\WINDOWS KITS\10\INCLUDE\10.0.18362.0\UCRT\CRTDBG.H
D:\PROGRAM FILES (X86)\MICROSOFT VISUAL STUDIO\2019\COMMUNITY\VC\TOOLS\MSVC\14.23.28105\INCLUDE\VCRUNTIME_NEW_DEBUG.H
D:\PROGRAM FILES (X86)\MICROSOFT VISUAL STUDIO\2019\COMMUNITY\VC\TOOLS\MSVC\14.23.28105\INCLUDE\VCRUNTIME_NEW.H
D:\PROGRAM FILES (X86)\MICROSOFT VISUAL STUDIO\2019\COMMUNITY\VC\TOOLS\MSVC\14.23.28105\INCLUDE\USE_ANSI.H
D:\PROGRAM FILES (X86)\MICROSOFT VISUAL STUDIO\2019\COMMUNITY\VC\TOOLS\MSVC\14.23.28105\INCLUDE\CSTDLIB
D:\WINDOWS KITS\10\INCLUDE\10.0.18362.0\UCRT\MATH.H
D:\WINDOWS KITS\10\INCLUDE\10.0.18362.0\UCRT\CORECRT_MATH.H
D:\WINDOWS KITS\10\INCLUDE\10.0.18362.0\UCRT\STDLIB.H
D:\WINDOWS KITS\10\INCLUDE\10.0.18362.0\UCRT\CORECRT_MALLOC.H
D:\WINDOWS KITS\10\INCLUDE\10.0.18362.0\UCRT\CORECRT_SEARCH.H
D:\WINDOWS KITS\10\INCLUDE\10.0.18362.0\UCRT\STDDEF.H
D:\WINDOWS KITS\10\INCLUDE\10.0.18362.0\UCRT\CORECRT_WSTDLIB.H
D:\PROGRAM FILES (X86)\MICROSOFT VISUAL STUDIO\2019\COMMUNITY\VC\TOOLS\MSVC\14.23.28105\INCLUDE\XTGMATH.H
D:\PROGRAM FILES (X86)\MICROSOFT VISUAL STUDIO\2019\COMMUNITY\VC\TOOLS\MSVC\14.23.28105\INCLUDE\XTR1COMMON
D:\PROGRAM FILES (X86)\MICROSOFT VISUAL STUDIO\2019\COMMUNITY\VC\TOOLS\MSVC\14.23.28105\INCLUDE\CSTDIO
D:\WINDOWS KITS\10\INCLUDE\10.0.18362.0\UCRT\STDIO.H
D:\WINDOWS KITS\10\INCLUDE\10.0.18362.0\UCRT\CORECRT_WSTDIO.H
D:\WINDOWS KITS\10\INCLUDE\10.0.18362.0\UCRT\CORECRT_STDIO_CONFIG.H
D:\PROGRAM FILES (X86)\MICROSOFT VISUAL STUDIO\2019\COMMUNITY\VC\TOOLS\MSVC\14.23.28105\INCLUDE\STREAMBUF
D:\PROGRAM FILES (X86)\MICROSOFT VISUAL STUDIO\2019\COMMUNITY\VC\TOOLS\MSVC\14.23.28105\INCLUDE\XIOSBASE
D:\WINDOWS KITS\10\INCLUDE\10.0.18362.0\UCRT\SHARE.H
D:\WINDOWS KITS\10\INCLUDE\10.0.18362.0\UCRT\CORECRT_SHARE.H
D:\PROGRAM FILES (X86)\MICROSOFT VISUAL STUDIO\2019\COMMUNITY\VC\TOOLS\MSVC\14.23.28105\INCLUDE\SYSTEM_ERROR
D:\PROGRAM FILES (X86)\MICROSOFT VISUAL STUDIO\2019\COMMUNITY\VC\TOOLS\MSVC\14.23.28105\INCLUDE\CERRNO
D:\WINDOWS KITS\10\INCLUDE\10.0.18362.0\UCRT\ERRNO.H
D:\PROGRAM FILES (X86)\MICROSOFT VISUAL STUDIO\2019\COMMUNITY\VC\TOOLS\MSVC\14.23.28105\INCLUDE\STDEXCEPT
D:\PROGRAM FILES (X86)\MICROSOFT VISUAL STUDIO\2019\COMMUNITY\VC\TOOLS\MSVC\14.23.28105\INCLUDE\EXCEPTION
D:\PROGRAM FILES (X86)\MICROSOFT VISUAL STUDIO\2019\COMMUNITY\VC\TOOLS\MSVC\14.23.28105\INCLUDE\TYPE_TRAITS
D:\PROGRAM FILES (X86)\MICROSOFT VISUAL STUDIO\2019\COMMUNITY\VC\TOOLS\MSVC\14.23.28105\INCLUDE\XSTDDEF
D:\PROGRAM FILES (X86)\MICROSOFT VISUAL STUDIO\2019\COMMUNITY\VC\TOOLS\MSVC\14.23.28105\INCLUDE\CSTDDEF
D:\PROGRAM FILES (X86)\MICROSOFT VISUAL STUDIO\2019\COMMUNITY\VC\TOOLS\MSVC\14.23.28105\INCLUDE\INITIALIZER_LIST
D:\WINDOWS KITS\10\INCLUDE\10.0.18362.0\UCRT\MALLOC.H
D:\PROGRAM FILES (X86)\MICROSOFT VISUAL STUDIO\2019\COMMUNITY\VC\TOOLS\MSVC\14.23.28105\INCLUDE\VCRUNTIME_EXCEPTION.H
D:\PROGRAM FILES (X86)\MICROSOFT VISUAL STUDIO\2019\COMMUNITY\VC\TOOLS\MSVC\14.23.28105\INCLUDE\EH.H
D:\WINDOWS KITS\10\INCLUDE\10.0.18362.0\UCRT\CORECRT_TERMINATE.H
D:\PROGRAM FILES (X86)\MICROSOFT VISUAL STUDIO\2019\COMMUNITY\VC\TOOLS\MSVC\14.23.28105\INCLUDE\XSTRING
D:\PROGRAM FILES (X86)\MICROSOFT VISUAL STUDIO\2019\COMMUNITY\VC\TOOLS\MSVC\14.23.28105\INCLUDE\IOSFWD
D:\PROGRAM FILES (X86)\MICROSOFT VISUAL STUDIO\2019\COMMUNITY\VC\TOOLS\MSVC\14.23.28105\INCLUDE\CSTRING
D:\WINDOWS KITS\10\INCLUDE\10.0.18362.0\UCRT\STRING.H
D:\WINDOWS KITS\10\INCLUDE\10.0.18362.0\UCRT\CORECRT_MEMORY.H
D:\WINDOWS KITS\10\INCLUDE\10.0.18362.0\UCRT\CORECRT_MEMCPY_S.H
D:\PROGRAM FILES (X86)\MICROSOFT VISUAL STUDIO\2019\COMMUNITY\VC\TOOLS\MSVC\14.23.28105\INCLUDE\VCRUNTIME_STRING.H
D:\WINDOWS KITS\10\INCLUDE\10.0.18362.0\UCRT\CORECRT_WSTRING.H
D:\PROGRAM FILES (X86)\MICROSOFT VISUAL STUDIO\2019\COMMUNITY\VC\TOOLS\MSVC\14.23.28105\INCLUDE\CWCHAR
D:\WINDOWS KITS\10\INCLUDE\10.0.18362.0\UCRT\WCHAR.H
D:\WINDOWS KITS\10\INCLUDE\10.0.18362.0\UCRT\CORECRT_WCONIO.H
D:\WINDOWS KITS\10\INCLUDE\10.0.18362.0\UCRT\CORECRT_WCTYPE.H
D:\WINDOWS KITS\10\INCLUDE\10.0.18362.0\UCRT\CORECRT_WDIRECT.H
D:\WINDOWS KITS\10\INCLUDE\10.0.18362.0\UCRT\CORECRT_WIO.H
D:\WINDOWS KITS\10\INCLUDE\10.0.18362.0\UCRT\CORECRT_WPROCESS.H
D:\WINDOWS KITS\10\INCLUDE\10.0.18362.0\UCRT\CORECRT_WTIME.H
D:\WINDOWS KITS\10\INCLUDE\10.0.18362.0\UCRT\SYS\STAT.H
D:\WINDOWS KITS\10\INCLUDE\10.0.18362.0\UCRT\SYS\TYPES.H
D:\PROGRAM FILES (X86)\MICROSOFT VISUAL STUDIO\2019\COMMUNITY\VC\TOOLS\MSVC\14.23.28105\INCLUDE\XMEMORY
D:\PROGRAM FILES (X86)\MICROSOFT VISUAL STUDIO\2019\COMMUNITY\VC\TOOLS\MSVC\14.23.28105\INCLUDE\CSTDINT
D:\PROGRAM FILES (X86)\MICROSOFT VISUAL STUDIO\2019\COMMUNITY\VC\TOOLS\MSVC\14.23.28105\INCLUDE\STDINT.H
D:\PROGRAM FILES (X86)\MICROSOFT VISUAL STUDIO\2019\COMMUNITY\VC\TOOLS\MSVC\14.23.28105\INCLUDE\LIMITS
D:\PROGRAM FILES (X86)\MICROSOFT VISUAL STUDIO\2019\COMMUNITY\VC\TOOLS\MSVC\14.23.28105\INCLUDE\CFLOAT
D:\WINDOWS KITS\10\INCLUDE\10.0.18362.0\UCRT\FLOAT.H
D:\PROGRAM FILES (X86)\MICROSOFT VISUAL STUDIO\2019\COMMUNITY\VC\TOOLS\MSVC\14.23.28105\INCLUDE\NEW
D:\PROGRAM FILES (X86)\MICROSOFT VISUAL STUDIO\2019\COMMUNITY\VC\TOOLS\MSVC\14.23.28105\INCLUDE\XATOMIC.H
D:\PROGRAM FILES (X86)\MICROSOFT VISUAL STUDIO\2019\COMMUNITY\VC\TOOLS\MSVC\14.23.28105\INCLUDE\INTRIN0.H
D:\PROGRAM FILES (X86)\MICROSOFT VISUAL STUDIO\2019\COMMUNITY\VC\TOOLS\MSVC\14.23.28105\INCLUDE\XUTILITY
D:\PROGRAM FILES (X86)\MICROSOFT VISUAL STUDIO\2019\COMMUNITY\VC\TOOLS\MSVC\14.23.28105\INCLUDE\UTILITY
D:\PROGRAM FILES (X86)\MICROSOFT VISUAL STUDIO\2019\COMMUNITY\VC\TOOLS\MSVC\14.23.28105\INCLUDE\XCALL_ONCE.H
D:\PROGRAM FILES (X86)\MICROSOFT VISUAL STUDIO\2019\COMMUNITY\VC\TOOLS\MSVC\14.23.28105\INCLUDE\XERRC.H
D:\PROGRAM FILES (X86)\MICROSOFT VISUAL STUDIO\2019\COMMUNITY\VC\TOOLS\MSVC\14.23.28105\INCLUDE\XLOCALE
D:\PROGRAM FILES (X86)\MICROSOFT VISUAL STUDIO\2019\COMMUNITY\VC\TOOLS\MSVC\14.23.28105\INCLUDE\MEMORY
D:\PROGRAM FILES (X86)\MICROSOFT VISUAL STUDIO\2019\COMMUNITY\VC\TOOLS\MSVC\14.23.28105\INCLUDE\TYPEINFO
D:\PROGRAM FILES (X86)\MICROSOFT VISUAL STUDIO\2019\COMMUNITY\VC\TOOLS\MSVC\14.23.28105\INCLUDE\VCRUNTIME_TYPEINFO.H
D:\PROGRAM FILES (X86)\MICROSOFT VISUAL STUDIO\2019\COMMUNITY\VC\TOOLS\MSVC\14.23.28105\INCLUDE\XFACET
D:\PROGRAM FILES (X86)\MICROSOFT VISUAL STUDIO\2019\COMMUNITY\VC\TOOLS\MSVC\14.23.28105\INCLUDE\XLOCINFO
D:\PROGRAM FILES (X86)\MICROSOFT VISUAL STUDIO\2019\COMMUNITY\VC\TOOLS\MSVC\14.23.28105\INCLUDE\XLOCINFO.H
D:\WINDOWS KITS\10\INCLUDE\10.0.18362.0\UCRT\CTYPE.H
D:\WINDOWS KITS\10\INCLUDE\10.0.18362.0\UCRT\LOCALE.H
D:\WINDOWS KITS\10\INCLUDE\10.0.18362.0\UM\WINDOWS.H
D:\WINDOWS KITS\10\INCLUDE\10.0.18362.0\SHARED\WINAPIFAMILY.H
D:\WINDOWS KITS\10\INCLUDE\10.0.18362.0\SHARED\WINPACKAGEFAMILY.H
D:\WINDOWS KITS\10\INCLUDE\10.0.18362.0\SHARED\SDKDDKVER.H
D:\PROGRAM FILES (X86)\MICROSOFT VISUAL STUDIO\2019\COMMUNITY\VC\TOOLS\MSVC\14.23.28105\INCLUDE\EXCPT.H
D:\PROGRAM FILES (X86)\MICROSOFT VISUAL STUDIO\2019\COMMUNITY\VC\TOOLS\MSVC\14.23.28105\INCLUDE\STDARG.H
D:\WINDOWS KITS\10\INCLUDE\10.0.18362.0\SHARED\WINDEF.H
D:\WINDOWS KITS\10\INCLUDE\10.0.18362.0\SHARED\MINWINDEF.H
D:\WINDOWS KITS\10\INCLUDE\10.0.18362.0\SHARED\SPECSTRINGS.H
D:\WINDOWS KITS\10\INCLUDE\10.0.18362.0\SHARED\SPECSTRINGS_STRICT.H
D:\WINDOWS KITS\10\INCLUDE\10.0.18362.0\SHARED\SPECSTRINGS_UNDEF.H
D:\WINDOWS KITS\10\INCLUDE\10.0.18362.0\SHARED\DRIVERSPECS.H
D:\WINDOWS KITS\10\INCLUDE\10.0.18362.0\SHARED\SDV_DRIVERSPECS.H
D:\WINDOWS KITS\10\INCLUDE\10.0.18362.0\UM\WINNT.H
D:\WINDOWS KITS\10\INCLUDE\10.0.18362.0\SHARED\KERNELSPECS.H
D:\WINDOWS KITS\10\INCLUDE\10.0.18362.0\SHARED\BASETSD.H
D:\WINDOWS KITS\10\INCLUDE\10.0.18362.0\SHARED\GUIDDEF.H
D:\WINDOWS KITS\10\INCLUDE\10.0.18362.0\SHARED\PSHPACK4.H
D:\WINDOWS KITS\10\INCLUDE\10.0.18362.0\SHARED\POPPACK.H
D:\WINDOWS KITS\10\INCLUDE\10.0.18362.0\SHARED\PSHPACK2.H
D:\WINDOWS KITS\10\INCLUDE\10.0.18362.0\SHARED\PSHPACK8.H
D:\WINDOWS KITS\10\INCLUDE\10.0.18362.0\SHARED\PSHPACK1.H
D:\WINDOWS KITS\10\INCLUDE\10.0.18362.0\SHARED\APISET.H
D:\WINDOWS KITS\10\INCLUDE\10.0.18362.0\SHARED\KTMTYPES.H
D:\WINDOWS KITS\10\INCLUDE\10.0.18362.0\UM\WINBASE.H
D:\WINDOWS KITS\10\INCLUDE\10.0.18362.0\SHARED\APISETCCONV.H
D:\WINDOWS KITS\10\INCLUDE\10.0.18362.0\UM\MINWINBASE.H
D:\WINDOWS KITS\10\INCLUDE\10.0.18362.0\UM\APIQUERY2.H
D:\WINDOWS KITS\10\INCLUDE\10.0.18362.0\UM\PROCESSENV.H
D:\WINDOWS KITS\10\INCLUDE\10.0.18362.0\UM\FILEAPIFROMAPP.H
D:\WINDOWS KITS\10\INCLUDE\10.0.18362.0\UM\FILEAPI.H
D:\WINDOWS KITS\10\INCLUDE\10.0.18362.0\UM\DEBUGAPI.H
D:\WINDOWS KITS\10\INCLUDE\10.0.18362.0\UM\UTILAPISET.H
D:\WINDOWS KITS\10\INCLUDE\10.0.18362.0\UM\HANDLEAPI.H
D:\WINDOWS KITS\10\INCLUDE\10.0.18362.0\UM\ERRHANDLINGAPI.H
D:\WINDOWS KITS\10\INCLUDE\10.0.18362.0\UM\FIBERSAPI.H
D:\WINDOWS KITS\10\INCLUDE\10.0.18362.0\UM\NAMEDPIPEAPI.H
D:\WINDOWS KITS\10\INCLUDE\10.0.18362.0\UM\PROFILEAPI.H
D:\WINDOWS KITS\10\INCLUDE\10.0.18362.0\UM\HEAPAPI.H
D:\WINDOWS KITS\10\INCLUDE\10.0.18362.0\UM\IOAPISET.H
D:\WINDOWS KITS\10\INCLUDE\10.0.18362.0\UM\SYNCHAPI.H
D:\WINDOWS KITS\10\INCLUDE\10.0.18362.0\UM\INTERLOCKEDAPI.H
D:\WINDOWS KITS\10\INCLUDE\10.0.18362.0\UM\PROCESSTHREADSAPI.H
D:\WINDOWS KITS\10\INCLUDE\10.0.18362.0\UM\SYSINFOAPI.H
D:\WINDOWS KITS\10\INCLUDE\10.0.18362.0\UM\MEMORYAPI.H
D:\WINDOWS KITS\10\INCLUDE\10.0.18362.0\UM\ENCLAVEAPI.H
D:\WINDOWS KITS\10\INCLUDE\10.0.18362.0\UM\THREADPOOLLEGACYAPISET.H
D:\WINDOWS KITS\10\INCLUDE\10.0.18362.0\UM\THREADPOOLAPISET.H
D:\WINDOWS KITS\10\INCLUDE\10.0.18362.0\UM\JOBAPI.H
D:\WINDOWS KITS\10\INCLUDE\10.0.18362.0\UM\JOBAPI2.H
D:\WINDOWS KITS\10\INCLUDE\10.0.18362.0\UM\WOW64APISET.H
D:\WINDOWS KITS\10\INCLUDE\10.0.18362.0\UM\LIBLOADERAPI.H
D:\WINDOWS KITS\10\INCLUDE\10.0.18362.0\UM\SECURITYBASEAPI.H
D:\WINDOWS KITS\10\INCLUDE\10.0.18362.0\UM\NAMESPACEAPI.H
D:\WINDOWS KITS\10\INCLUDE\10.0.18362.0\UM\SYSTEMTOPOLOGYAPI.H
D:\WINDOWS KITS\10\INCLUDE\10.0.18362.0\UM\PROCESSTOPOLOGYAPI.H
D:\WINDOWS KITS\10\INCLUDE\10.0.18362.0\UM\SECURITYAPPCONTAINER.H
D:\WINDOWS KITS\10\INCLUDE\10.0.18362.0\UM\REALTIMEAPISET.H
D:\WINDOWS KITS\10\INCLUDE\10.0.18362.0\SHARED\WINERROR.H
D:\WINDOWS KITS\10\INCLUDE\10.0.18362.0\UM\TIMEZONEAPI.H
D:\WINDOWS KITS\10\INCLUDE\10.0.18362.0\UM\WINGDI.H
D:\WINDOWS KITS\10\INCLUDE\10.0.18362.0\UM\WINUSER.H
D:\WINDOWS KITS\10\INCLUDE\10.0.18362.0\SHARED\TVOUT.H
D:\WINDOWS KITS\10\INCLUDE\10.0.18362.0\UM\WINNLS.H
D:\WINDOWS KITS\10\INCLUDE\10.0.18362.0\UM\DATETIMEAPI.H
D:\WINDOWS KITS\10\INCLUDE\10.0.18362.0\UM\STRINGAPISET.H
D:\WINDOWS KITS\10\INCLUDE\10.0.18362.0\UM\WINCON.H
D:\WINDOWS KITS\10\INCLUDE\10.0.18362.0\UM\WINCONTYPES.H
D:\WINDOWS KITS\10\INCLUDE\10.0.18362.0\UM\CONSOLEAPI.H
D:\WINDOWS KITS\10\INCLUDE\10.0.18362.0\UM\CONSOLEAPI2.H
D:\WINDOWS KITS\10\INCLUDE\10.0.18362.0\UM\CONSOLEAPI3.H
D:\WINDOWS KITS\10\INCLUDE\10.0.18362.0\UM\WINVER.H
D:\WINDOWS KITS\10\INCLUDE\10.0.18362.0\UM\VERRSRC.H
D:\WINDOWS KITS\10\INCLUDE\10.0.18362.0\UM\WINREG.H
D:\WINDOWS KITS\10\INCLUDE\10.0.18362.0\UM\REASON.H
D:\WINDOWS KITS\10\INCLUDE\10.0.18362.0\UM\WINNETWK.H
D:\WINDOWS KITS\10\INCLUDE\10.0.18362.0\SHARED\WNNC.H
D:\WINDOWS KITS\10\INCLUDE\10.0.18362.0\SHARED\CDERR.H
D:\WINDOWS KITS\10\INCLUDE\10.0.18362.0\UM\DDE.H
D:\WINDOWS KITS\10\INCLUDE\10.0.18362.0\UM\DDEML.H
D:\WINDOWS KITS\10\INCLUDE\10.0.18362.0\UM\DLGS.H
D:\WINDOWS KITS\10\INCLUDE\10.0.18362.0\UM\LZEXPAND.H
D:\WINDOWS KITS\10\INCLUDE\10.0.18362.0\UM\MMSYSTEM.H
D:\WINDOWS KITS\10\INCLUDE\10.0.18362.0\UM\MMSYSCOM.H
D:\WINDOWS KITS\10\INCLUDE\10.0.18362.0\UM\MCIAPI.H
D:\WINDOWS KITS\10\INCLUDE\10.0.18362.0\UM\MMISCAPI.H
D:\WINDOWS KITS\10\INCLUDE\10.0.18362.0\UM\MMISCAPI2.H
D:\WINDOWS KITS\10\INCLUDE\10.0.18362.0\UM\PLAYSOUNDAPI.H
D:\WINDOWS KITS\10\INCLUDE\10.0.18362.0\UM\MMEAPI.H
D:\WINDOWS KITS\10\INCLUDE\10.0.18362.0\UM\TIMEAPI.H
D:\WINDOWS KITS\10\INCLUDE\10.0.18362.0\UM\JOYSTICKAPI.H
D:\WINDOWS KITS\10\INCLUDE\10.0.18362.0\UM\NB30.H
D:\WINDOWS KITS\10\INCLUDE\10.0.18362.0\SHARED\RPC.H
D:\WINDOWS KITS\10\INCLUDE\10.0.18362.0\SHARED\RPCDCE.H
D:\WINDOWS KITS\10\INCLUDE\10.0.18362.0\SHARED\RPCDCEP.H
D:\WINDOWS KITS\10\INCLUDE\10.0.18362.0\UM\RPCNSI.H
D:\WINDOWS KITS\10\INCLUDE\10.0.18362.0\SHARED\RPCNTERR.H
D:\WINDOWS KITS\10\INCLUDE\10.0.18362.0\SHARED\RPCASYNC.H
D:\WINDOWS KITS\10\INCLUDE\10.0.18362.0\UM\SHELLAPI.H
D:\WINDOWS KITS\10\INCLUDE\10.0.18362.0\UM\WINPERF.H
D:\WINDOWS KITS\10\INCLUDE\10.0.18362.0\UM\WINSOCK.H
D:\WINDOWS KITS\10\INCLUDE\10.0.18362.0\SHARED\INADDR.H
D:\WINDOWS KITS\10\INCLUDE\10.0.18362.0\UM\WINCRYPT.H
D:\WINDOWS KITS\10\INCLUDE\10.0.18362.0\SHARED\BCRYPT.H
D:\WINDOWS KITS\10\INCLUDE\10.0.18362.0\UM\NCRYPT.H
D:\WINDOWS KITS\10\INCLUDE\10.0.18362.0\UM\DPAPI.H
D:\WINDOWS KITS\10\INCLUDE\10.0.18362.0\UM\WINEFS.H
D:\WINDOWS KITS\10\INCLUDE\10.0.18362.0\UM\WINSCARD.H
D:\WINDOWS KITS\10\INCLUDE\10.0.18362.0\SHARED\WTYPES.H
D:\WINDOWS KITS\10\INCLUDE\10.0.18362.0\SHARED\RPCNDR.H
D:\WINDOWS KITS\10\INCLUDE\10.0.18362.0\UM\RPCNSIP.H
D:\WINDOWS KITS\10\INCLUDE\10.0.18362.0\SHARED\RPCSAL.H
D:\WINDOWS KITS\10\INCLUDE\10.0.18362.0\SHARED\WTYPESBASE.H
D:\WINDOWS KITS\10\INCLUDE\10.0.18362.0\UM\WINIOCTL.H
D:\WINDOWS KITS\10\INCLUDE\10.0.18362.0\SHARED\WINSMCRD.H
D:\WINDOWS KITS\10\INCLUDE\10.0.18362.0\UM\WINSPOOL.H
D:\WINDOWS KITS\10\INCLUDE\10.0.18362.0\UM\PRSHT.H
D:\WINDOWS KITS\10\INCLUDE\10.0.18362.0\UM\OLE2.H
D:\WINDOWS KITS\10\INCLUDE\10.0.18362.0\UM\OBJBASE.H
D:\WINDOWS KITS\10\INCLUDE\10.0.18362.0\UM\COMBASEAPI.H
D:\WINDOWS KITS\10\INCLUDE\10.0.18362.0\UM\UNKNWNBASE.H
D:\WINDOWS KITS\10\INCLUDE\10.0.18362.0\UM\OBJIDLBASE.H
D:\WINDOWS KITS\10\INCLUDE\10.0.18362.0\UM\CGUID.H
D:\WINDOWS KITS\10\INCLUDE\10.0.18362.0\UM\COML2API.H
D:\WINDOWS KITS\10\INCLUDE\10.0.18362.0\UM\OBJIDL.H
D:\WINDOWS KITS\10\INCLUDE\10.0.18362.0\UM\UNKNWN.H
D:\WINDOWS KITS\10\INCLUDE\10.0.18362.0\UM\PROPIDLBASE.H
D:\WINDOWS KITS\10\INCLUDE\10.0.18362.0\UM\OAIDL.H
D:\WINDOWS KITS\10\INCLUDE\10.0.18362.0\UM\URLMON.H
D:\WINDOWS KITS\10\INCLUDE\10.0.18362.0\UM\OLEIDL.H
D:\WINDOWS KITS\10\INCLUDE\10.0.18362.0\UM\SERVPROV.H
D:\WINDOWS KITS\10\INCLUDE\10.0.18362.0\UM\MSXML.H
D:\WINDOWS KITS\10\INCLUDE\10.0.18362.0\UM\PROPIDL.H
D:\WINDOWS KITS\10\INCLUDE\10.0.18362.0\UM\OLEAUTO.H
D:\WINDOWS KITS\10\INCLUDE\10.0.18362.0\UM\COMMDLG.H
D:\WINDOWS KITS\10\INCLUDE\10.0.18362.0\SHARED\STRALIGN.H
D:\WINDOWS KITS\10\INCLUDE\10.0.18362.0\UM\WINSVC.H
D:\WINDOWS KITS\10\INCLUDE\10.0.18362.0\UM\MCX.H
D:\WINDOWS KITS\10\INCLUDE\10.0.18362.0\UM\IMM.H
D:\WINDOWS KITS\10\INCLUDE\10.0.18362.0\UM\IME_CMODES.H
C:\USERS\KOSTYABEK\SOURCE\REPOS\CONSOLEAPPLICATION1\CONSOLEAPPLICATION1\MY_FUNC.H
^C:\USERS\KOSTYABEK\SOURCE\REPOS\CONSOLEAPPLICATION1\CONSOLEAPPLICATION1\MY_FUNC.CPP
D:\PROGRAM FILES (X86)\MICROSOFT VISUAL STUDIO\2019\COMMUNITY\VC\TOOLS\MSVC\14.23.28105\BIN\HOSTX86\X86\1049\CLUI.DLL
C:\WINDOWS\GLOBALIZATION\SORTING\SORTDEFAULT.NLS
C:\WINDOWS\SYSTEM32\RSAENH.DLL
C:\WINDOWS\SYSTEM32\TZRES.DLL
D:\WINDOWS KITS\10\INCLUDE\10.0.18362.0\UCRT\MATH.H
D:\WINDOWS KITS\10\INCLUDE\10.0.18362.0\UCRT\CORECRT_MATH.H
D:\WINDOWS KITS\10\INCLUDE\10.0.18362.0\UCRT\CORECRT.H
D:\PROGRAM FILES (X86)\MICROSOFT VISUAL STUDIO\2019\COMMUNITY\VC\TOOLS\MSVC\14.23.28105\INCLUDE\VCRUNTIME.H
D:\PROGRAM FILES (X86)\MICROSOFT VISUAL STUDIO\2019\COMMUNITY\VC\TOOLS\MSVC\14.23.28105\INCLUDE\SAL.H
D:\PROGRAM FILES (X86)\MICROSOFT VISUAL STUDIO\2019\COMMUNITY\VC\TOOLS\MSVC\14.23.28105\INCLUDE\CONCURRENCYSAL.H
D:\PROGRAM FILES (X86)\MICROSOFT VISUAL STUDIO\2019\COMMUNITY\VC\TOOLS\MSVC\14.23.28105\INCLUDE\VADEFS.H
D:\WINDOWS KITS\10\INCLUDE\10.0.18362.0\UCRT\CORECRT_MATH_DEFINES.H
D:\WINDOWS KITS\10\INCLUDE\10.0.18362.0\UCRT\STDIO.H
D:\WINDOWS KITS\10\INCLUDE\10.0.18362.0\UCRT\CORECRT_WSTDIO.H
D:\WINDOWS KITS\10\INCLUDE\10.0.18362.0\UCRT\CORECRT_STDIO_CONFIG.H
